Predicting March Madness with Machine Learning - Josh Thiele
…
Fitting our model (this will take a few minutes).

log_fit <- 
  log_workflow %>% 
  fit(data = log_train)

Combining prediction result to training data.

trainpredict <- log_fit %>% predict(new_data = log_train) %>%
  bind_cols(log_train)

trainpredict

## # A tibble: 20,086 x 16
##    .pred_class Season  Team    Date       Opponent   Outcome RollingPace TeamSRS
##    <fct>       <chr>   <chr>   <date>     <chr>      <fct>         <dbl>   <dbl>
##  1 L           2014-2~ Abilen~ 2015-01-20 McNeese S~ L              67.9   -17.2
##  2 L           2014-2~ Abilen~ 2015-01-24 Incarnate~ L              67.4   -17.2
##  3 L           2014-2~ Abilen~ 2015-01-26 Sam Houst~ L              66.4   -17.2
##  4 L           2014-2~ Abilen~ 2015-01-31 Lamar      L              65.6   -17.2
##  5 L           2014-2~ Abilen~ 2015-02-02 Houston B~ L              65.2   -17.2
##  6 L           2014-2~ Abilen~ 2015-02-07 Southeast~ L              64.2   -17.2
##  7 L           2014-2~ Abilen~ 2015-02-09 Lamar      L              64.0   -17.2
##  8 L           2014-2~ Abilen~ 2015-02-16 Sam Houst~ L              64.5   -17.2
##  9 L           2014-2~ Abilen~ 2015-02-21 Southeast~ L              63.0   -17.2
## 10 L           2014-2~ Abilen~ 2015-02-24 Texas A&M~ L              79.2   -17.2
## # ... with 20,076 more rows, and 8 more variables: RollingMeanOffRating <dbl>,
## #   RollingMeanDefRating <dbl>, CumulativeWinQuality <dbl>,
## #   OpponentRollingPace <dbl>, OpponentSRS <dbl>,
## #   OpponentRollingMeanOffRating <dbl>, OpponentRollingMeanDefRating <dbl>,
## #   OpponentCumulativeWinQuality <dbl>

Combining prediction probabilities to training data.

trainpredict <- log_fit %>% predict(new_data = log_train, type="prob") %>%
  bind_cols(trainpredict)

trainpredict

## # A tibble: 20,086 x 18
##    .pred_L .pred_W .pred_class Season  Team      Date       Opponent     Outcome
##      <dbl>   <dbl> <fct>       <chr>   <chr>     <date>     <chr>        <fct>  
##  1   0.752  0.248  L           2014-2~ Abilene ~ 2015-01-20 McNeese Sta~ L      
##  2   0.914  0.0858 L           2014-2~ Abilene ~ 2015-01-24 Incarnate W~ L      
##  3   0.987  0.0131 L           2014-2~ Abilene ~ 2015-01-26 Sam Houston~ L      
##  4   0.894  0.106  L           2014-2~ Abilene ~ 2015-01-31 Lamar        L      
##  5   0.859  0.141  L           2014-2~ Abilene ~ 2015-02-02 Houston Bap~ L      
##  6   0.878  0.122  L           2014-2~ Abilene ~ 2015-02-07 Southeaster~ L      
##  7   0.864  0.136  L           2014-2~ Abilene ~ 2015-02-09 Lamar        L      
##  8   0.983  0.0174 L           2014-2~ Abilene ~ 2015-02-16 Sam Houston~ L      
##  9   0.880  0.120  L           2014-2~ Abilene ~ 2015-02-21 Southeaster~ L      
## 10   0.850  0.150  L           2014-2~ Abilene ~ 2015-02-24 Texas A&M-C~ L      
## # ... with 20,076 more rows, and 10 more variables: RollingPace <dbl>,
## #   TeamSRS <dbl>, RollingMeanOffRating <dbl>, RollingMeanDefRating <dbl>,
## #   CumulativeWinQuality <dbl>, OpponentRollingPace <dbl>, OpponentSRS <dbl>,
## #   OpponentRollingMeanOffRating <dbl>, OpponentRollingMeanDefRating <dbl>,
## #   OpponentCumulativeWinQuality <dbl>
…
##           Truth
## Prediction    L    W
##          L 9962  147
##          W  140 9837

Now doing the same things but with the test data.

testpredict <- log_fit %>% predict(new_data = log_test) %>%
  bind_cols(log_test)

testpredict

## # A tibble: 5,021 x 16
##    .pred_class Season  Team    Date       Opponent   Outcome RollingPace TeamSRS
##    <fct>       <chr>   <chr>   <date>     <chr>      <fct>         <dbl>   <dbl>
##  1 L           2014-2~ Air Fo~ 2015-03-11 New Mexico W              63.8   -1.85
##  2 W           2014-2~ Akron   2015-03-11 Western M~ W              60.0    3.65
##  3 L           2014-2~ Alabam~ 2015-01-17 Alabama S~ L              67.0  -17.2 
##  4 L           2014-2~ Alabam~ 2015-01-31 Prairie V~ L              68.1  -17.2 
##  5 L           2014-2~ Alabam~ 2015-02-14 Alabama S~ W              68.2  -17.2 
##  6 W           2014-2~ Alabam~ 2015-01-17 Alabama A~ W              69.3   -8.97
##  7 W           2014-2~ Alabam~ 2015-02-14 Alabama A~ L              67.8   -8.97
##  8 W           2014-2~ Alabam~ 2015-02-21 Alcorn St~ W              67.8   -8.97
##  9 L           2014-2~ Alabam~ 2015-02-23 Southern   W              69.0   -8.97
## 10 L           2014-2~ Alabam~ 2015-03-13 Southern   L              72.5   -8.97
## # ... with 5,011 more rows, and 8 more variables: RollingMeanOffRating <dbl>,
## #   RollingMeanDefRating <dbl>, CumulativeWinQuality <dbl>,
## #   OpponentRollingPace <dbl>, OpponentSRS <dbl>,
## #   OpponentRollingMeanOffRating <dbl>, OpponentRollingMeanDefRating <dbl>,
## #   OpponentCumulativeWinQuality <dbl>

testpredict <- log_fit %>% predict(new_data = log_test, type="prob") %>%
  bind_cols(testpredict)

testpredict

## # A tibble: 5,021 x 18
##    .pred_L .pred_W .pred_class Season   Team      Date       Opponent    Outcome
##      <dbl>   <dbl> <fct>       <chr>    <chr>     <date>     <chr>       <fct>  
##  1   0.612   0.388 L           2014-20~ Air Force 2015-03-11 New Mexico  W      
##  2   0.407   0.593 W           2014-20~ Akron     2015-03-11 Western Mi~ W      
##  3   0.807   0.193 L           2014-20~ Alabama ~ 2015-01-17 Alabama St~ L      
##  4   0.654   0.346 L           2014-20~ Alabama ~ 2015-01-31 Prairie Vi~ L      
##  5   0.860   0.140 L           2014-20~ Alabama ~ 2015-02-14 Alabama St~ W      
##  6   0.230   0.770 W           2014-20~ Alabama ~ 2015-01-17 Alabama A&M W      
##  7   0.156   0.844 W           2014-20~ Alabama ~ 2015-02-14 Alabama A&M L      
##  8   0.188   0.812 W           2014-20~ Alabama ~ 2015-02-21 Alcorn Sta~ W      
##  9   0.575   0.425 L           2014-20~ Alabama ~ 2015-02-23 Southern    W      
## 10   0.550   0.450 L           2014-20~ Alabama ~ 2015-03-13 Southern    L      
## # ... with 5,011 more rows, and 10 more variables: RollingPace <dbl>,
## #   TeamSRS <dbl>, RollingMeanOffRating <dbl>, RollingMeanDefRating <dbl>,
## #   CumulativeWinQuality <dbl>, OpponentRollingPace <dbl>, OpponentSRS <dbl>,
## #   OpponentRollingMeanOffRating <dbl>, OpponentRollingMeanDefRating <dbl>,
## #   OpponentCumulativeWinQuality <dbl>
…
